{
    "count": 93,
    "next": "https://zonesmart.su/v1/zonesmart/order/?limit=10&offset=10",
    "previous": null,
    "results": [
        {
            "id": "7f6b9ac4-fd25-494b-a333-d8f029a112ad",
            "created": "2021-02-11T13:16:27.900838+03:00",
            "marketplace_user_account": {
                "id": "62536ece-f491-423b-a9db-d9dc81c5ac33",
                "user": 14,
                "marketplace": 1,
                "marketplace_name": "eBay",
                "username": "jetsetter-su"
            },
            "channel": {
                "id": "281494ae-07f5-45be-8477-4a1ab586908a",
                "name": "Канал продаж 'US site' аккаунта 'jetsetter-su'.",
                "marketplace_user_account": "62536ece-f491-423b-a9db-d9dc81c5ac33",
                "domain": 8
            },
            "order_id": "27-06529-36494",
            "create_date": "2021-02-05T20:03:44+03:00",
            "update_date": "2021-02-11T11:04:19+03:00",
            "items": [
                {
                    "id": "8ab19a3c-eed8-45ec-b510-e3bfe2304cd8",
                    "sku": "JC4039PP1ALF_0500_NOSIZE",
                    "title": "LOVE MOSCHINO women's BACKPACK JC4039PP1ALF",
                    "quantity": 1,
                    "price": 150.35,
                    "currency": "USD",
                    "total_price": 150.35,
                    "main_image": null
                }
            ],
            "buyer": "Krista Bruno",
            "total_price": 150.35,
            "currency_code": "USD",
            "is_open": false,
            "is_paid": true,
            "is_shipped": true,
            "is_partially_shipped": false,
            "is_completed": true,
            "is_canceled": false,
            "is_refunded": false,
            "is_visible": true,
            "is_viewed": true,
            "is_disabled": true
        },
        {
            "id": "c6616427-c125-4523-bca4-32f13e2e8afa",
            "created": "2021-01-27T16:38:23.282523+03:00",
            "marketplace_user_account": {
                "id": "62536ece-f491-423b-a9db-d9dc81c5ac33",
                "user": 14,
                "marketplace": 1,
                "marketplace_name": "eBay",
                "username": "jetsetter-su"
            },
            "channel": {
                "id": "281494ae-07f5-45be-8477-4a1ab586908a",
                "name": "Канал продаж 'US site' аккаунта 'jetsetter-su'.",
                "marketplace_user_account": "62536ece-f491-423b-a9db-d9dc81c5ac33",
                "domain": 8
            },
            "order_id": "25-06456-70448",
            "create_date": "2021-01-24T04:12:48+03:00",
            "update_date": "2021-01-26T19:53:02+03:00",
            "items": [
                {
                    "id": "ba327396-32cc-41ca-b16d-8e244cb21cbd",
                    "sku": "JC4034PP1BLE_0001_NOSIZE",
                    "title": "LOVE MOSCHINO women's HANDBAG JC4034PP1BLE",
                    "quantity": 1,
                    "price": 146.42,
                    "currency": "USD",
                    "total_price": 146.42,
                    "main_image": null
                }
            ],
            "buyer": "Liliya Michelle Bond",
            "total_price": 146.42,
            "currency_code": "USD",
            "is_open": false,
            "is_paid": true,
            "is_shipped": true,
            "is_partially_shipped": false,
            "is_completed": true,
            "is_canceled": false,
            "is_refunded": false,
            "is_visible": true,
            "is_viewed": true,
            "is_disabled": true
        },
        {
            "id": "b2ecf3f3-e2df-4f43-9681-3ad76ece2f0e",
            "created": "2021-01-27T16:38:23.333754+03:00",
            "marketplace_user_account": {
                "id": "62536ece-f491-423b-a9db-d9dc81c5ac33",
                "user": 14,
                "marketplace": 1,
                "marketplace_name": "eBay",
                "username": "jetsetter-su"
            },
            "channel": {
                "id": "281494ae-07f5-45be-8477-4a1ab586908a",
                "name": "Канал продаж 'US site' аккаунта 'jetsetter-su'.",
                "marketplace_user_account": "62536ece-f491-423b-a9db-d9dc81c5ac33",
                "domain": 8
            },
            "order_id": "09-06458-53597",
            "create_date": "2021-01-24T02:41:14+03:00",
            "update_date": "2021-01-26T19:51:32+03:00",
            "items": [
                {
                    "id": "79a21fbe-4aea-4b27-823b-c0d3090106b8",
                    "sku": "3ZZC11ZNBTZ0512_M",
                    "title": "ARMANI EXCHANGE men's SHIRT 3ZZC11ZNBTZ",
                    "quantity": 1,
                    "price": 49.75,
                    "currency": "USD",
                    "total_price": 49.75,
                    "main_image": null
                }
            ],
            "buyer": "Alejandro Ortiz",
            "total_price": 49.75,
            "currency_code": "USD",
            "is_open": false,
            "is_paid": true,
            "is_shipped": true,
            "is_partially_shipped": false,
            "is_completed": true,
            "is_canceled": false,
            "is_refunded": false,
            "is_visible": true,
            "is_viewed": false,
            "is_disabled": true
        },
        {
            "id": "af03d33b-7283-442d-8a35-b20c7dc84c3c",
            "created": "2021-01-27T16:38:23.376371+03:00",
            "marketplace_user_account": {
                "id": "62536ece-f491-423b-a9db-d9dc81c5ac33",
                "user": 14,
                "marketplace": 1,
                "marketplace_name": "eBay",
                "username": "jetsetter-su"
            },
            "channel": {
                "id": "281494ae-07f5-45be-8477-4a1ab586908a",
                "name": "Канал продаж 'US site' аккаунта 'jetsetter-su'.",
                "marketplace_user_account": "62536ece-f491-423b-a9db-d9dc81c5ac33",
                "domain": 8
            },
            "order_id": "07-06440-58528",
            "create_date": "2021-01-20T18:58:26+03:00",
            "update_date": "2021-01-27T03:53:40+03:00",
            "items": [
                {
                    "id": "0be98c0a-977d-4627-b3c7-03cb4820d8a0",
                    "sku": "JC4055PP1BLG_0110_NOSIZE",
                    "title": "LOVE MOSCHINO women's SHOULDER BAG JC4055PP1BLG",
                    "quantity": 1,
                    "price": 160.71,
                    "currency": "USD",
                    "total_price": 160.71,
                    "main_image": null
                }
            ],
            "buyer": "Jazmine Oneal",
            "total_price": 160.71,
            "currency_code": "USD",
            "is_open": false,
            "is_paid": true,
            "is_shipped": true,
            "is_partially_shipped": false,
            "is_completed": true,
            "is_canceled": false,
            "is_refunded": false,
            "is_visible": true,
            "is_viewed": false,
            "is_disabled": true
        },
        {
            "id": "3d12122c-b8bc-482f-9316-9d40d862276a",
            "created": "2021-01-27T16:38:23.406124+03:00",
            "marketplace_user_account": {
                "id": "62536ece-f491-423b-a9db-d9dc81c5ac33",
                "user": 14,
                "marketplace": 1,
                "marketplace_name": "eBay",
                "username": "jetsetter-su"
            },
            "channel": {
                "id": "281494ae-07f5-45be-8477-4a1ab586908a",
                "name": "Канал продаж 'US site' аккаунта 'jetsetter-su'.",
                "marketplace_user_account": "62536ece-f491-423b-a9db-d9dc81c5ac33",
                "domain": 8
            },
            "order_id": "25-06437-49758",
            "create_date": "2021-01-20T17:08:06+03:00",
            "update_date": "2021-01-27T03:50:42+03:00",
            "items": [
                {
                    "id": "4a58ddd5-7e77-4d72-89a3-06e3c7cf7723",
                    "sku": "JC5616PP18LO_0500_NOSIZE",
                    "title": "LOVE MOSCHINO women's CLUTCH JC5616PP18LO",
                    "quantity": 1,
                    "price": 76.25,
                    "currency": "USD",
                    "total_price": 76.25,
                    "main_image": null
                }
            ],
            "buyer": "Jaquitta Gibson",
            "total_price": 76.25,
            "currency_code": "USD",
            "is_open": false,
            "is_paid": true,
            "is_shipped": true,
            "is_partially_shipped": false,
            "is_completed": true,
            "is_canceled": false,
            "is_refunded": false,
            "is_visible": true,
            "is_viewed": false,
            "is_disabled": true
        },
        {
            "id": "326999fb-1398-48dd-9ac2-d7ce08f4b69c",
            "created": "2021-01-27T16:38:23.436259+03:00",
            "marketplace_user_account": {
                "id": "62536ece-f491-423b-a9db-d9dc81c5ac33",
                "user": 14,
                "marketplace": 1,
                "marketplace_name": "eBay",
                "username": "jetsetter-su"
            },
            "channel": {
                "id": "281494ae-07f5-45be-8477-4a1ab586908a",
                "name": "Канал продаж 'US site' аккаунта 'jetsetter-su'.",
                "marketplace_user_account": "62536ece-f491-423b-a9db-d9dc81c5ac33",
                "domain": 8
            },
            "order_id": "24-06442-27873",
            "create_date": "2021-01-19T07:44:25+03:00",
            "update_date": "2021-01-21T20:09:57+03:00",
            "items": [
                {
                    "id": "d4aae96f-9ca0-4aa5-97be-af41339f4d40",
                    "sku": "E1HSBB03_70808_899_NOSIZE",
                    "title": "VERSACE JEANS women's BACKPACK E1HSBB03_70808",
                    "quantity": 1,
                    "price": 131.99,
                    "currency": "USD",
                    "total_price": 131.99,
                    "main_image": null
                }
            ],
            "buyer": "Lannie Lee",
            "total_price": 131.99,
            "currency_code": "USD",
            "is_open": false,
            "is_paid": true,
            "is_shipped": true,
            "is_partially_shipped": false,
            "is_completed": true,
            "is_canceled": false,
            "is_refunded": false,
            "is_visible": true,
            "is_viewed": false,
            "is_disabled": true
        },
        {
            "id": "0980c32d-f974-4baf-8340-efdef5a8442c",
            "created": "2021-01-27T16:38:23.466282+03:00",
            "marketplace_user_account": {
                "id": "62536ece-f491-423b-a9db-d9dc81c5ac33",
                "user": 14,
                "marketplace": 1,
                "marketplace_name": "eBay",
                "username": "jetsetter-su"
            },
            "channel": {
                "id": "281494ae-07f5-45be-8477-4a1ab586908a",
                "name": "Канал продаж 'US site' аккаунта 'jetsetter-su'.",
                "marketplace_user_account": "62536ece-f491-423b-a9db-d9dc81c5ac33",
                "domain": 8
            },
            "order_id": "13-06416-02246",
            "create_date": "2021-01-16T17:43:02+03:00",
            "update_date": "2021-01-26T00:06:20+03:00",
            "items": [
                {
                    "id": "fde5f05a-fb0a-4d43-b6f1-ec3009ae7ba9",
                    "sku": "JC4288PP08KN_0001_NOSIZE",
                    "title": "LOVE MOSCHINO women's SHOULDER STRAP JC4288PP08KN",
                    "quantity": 1,
                    "price": 104.52,
                    "currency": "USD",
                    "total_price": 104.52,
                    "main_image": null
                }
            ],
            "buyer": "tuul baatarkhuu",
            "total_price": 104.52,
            "currency_code": "USD",
            "is_open": false,
            "is_paid": true,
            "is_shipped": true,
            "is_partially_shipped": false,
            "is_completed": true,
            "is_canceled": false,
            "is_refunded": false,
            "is_visible": true,
            "is_viewed": false,
            "is_disabled": true
        },
        {
            "id": "47e2749e-bd18-4c83-88a5-8eaed4b91541",
            "created": "2021-01-27T16:38:23.498400+03:00",
            "marketplace_user_account": {
                "id": "62536ece-f491-423b-a9db-d9dc81c5ac33",
                "user": 14,
                "marketplace": 1,
                "marketplace_name": "eBay",
                "username": "jetsetter-su"
            },
            "channel": {
                "id": "281494ae-07f5-45be-8477-4a1ab586908a",
                "name": "Канал продаж 'US site' аккаунта 'jetsetter-su'.",
                "marketplace_user_account": "62536ece-f491-423b-a9db-d9dc81c5ac33",
                "domain": 8
            },
            "order_id": "09-06410-93351",
            "create_date": "2021-01-15T16:24:00+03:00",
            "update_date": "2021-01-20T14:14:25+03:00",
            "items": [
                {
                    "id": "4530b274-3690-4325-acbb-fd1181f9b824",
                    "sku": "M20327w_6",
                    "title": "Adidas StanSmith Sneakers Women's Black M20327",
                    "quantity": 1,
                    "price": 87.53,
                    "currency": "USD",
                    "total_price": 87.53,
                    "main_image": null
                }
            ],
            "buyer": "Maehwa Lee",
            "total_price": 87.53,
            "currency_code": "USD",
            "is_open": true,
            "is_paid": false,
            "is_shipped": false,
            "is_partially_shipped": false,
            "is_completed": false,
            "is_canceled": false,
            "is_refunded": true,
            "is_visible": true,
            "is_viewed": false,
            "is_disabled": true
        },
        {
            "id": "bcbe59e8-3ccd-414c-ac78-2dc94053a0a7",
            "created": "2021-01-27T16:38:23.530673+03:00",
            "marketplace_user_account": {
                "id": "62536ece-f491-423b-a9db-d9dc81c5ac33",
                "user": 14,
                "marketplace": 1,
                "marketplace_name": "eBay",
                "username": "jetsetter-su"
            },
            "channel": {
                "id": "281494ae-07f5-45be-8477-4a1ab586908a",
                "name": "Канал продаж 'US site' аккаунта 'jetsetter-su'.",
                "marketplace_user_account": "62536ece-f491-423b-a9db-d9dc81c5ac33",
                "domain": 8
            },
            "order_id": "08-06406-61356",
            "create_date": "2021-01-14T20:48:52+03:00",
            "update_date": "2021-01-19T17:53:28+03:00",
            "items": [
                {
                    "id": "c8910cef-4c60-4357-922c-030fdc58369e",
                    "sku": "JC4053PP18LF_0500_NOSIZE",
                    "title": "LOVE MOSCHINO women's TOTE JC4053PP18LF",
                    "quantity": 3,
                    "price": 278.96,
                    "currency": "USD",
                    "total_price": 836.8799999999999,
                    "main_image": null
                },
                {
                    "id": "9c0ab9d1-d0ab-46d4-bad9-5b9f2f89a191",
                    "sku": "JC4052PP1BLG_0000_NOSIZE",
                    "title": "LOVE MOSCHINO women's SHOULDER STRAP JC4052PP1BLG",
                    "quantity": 1,
                    "price": 103.71,
                    "currency": "USD",
                    "total_price": 103.71,
                    "main_image": null
                },
                {
                    "id": "35edd625-6c9d-4625-8c7a-7a12054eb674",
                    "sku": "JC4083PP18LO_0500_NOSIZE",
                    "title": "LOVE MOSCHINO women's HANDBAG JC4083PP18LO",
                    "quantity": 2,
                    "price": 201.26,
                    "currency": "USD",
                    "total_price": 402.52,
                    "main_image": null
                }
            ],
            "buyer": "Linh HN20",
            "total_price": 583.93,
            "currency_code": "USD",
            "is_open": true,
            "is_paid": false,
            "is_shipped": true,
            "is_partially_shipped": false,
            "is_completed": false,
            "is_canceled": false,
            "is_refunded": true,
            "is_visible": true,
            "is_viewed": false,
            "is_disabled": true
        },
        {
            "id": "47fae04b-cb53-463f-9766-7ed5c3bc28a7",
            "created": "2021-01-27T16:38:23.580440+03:00",
            "marketplace_user_account": {
                "id": "62536ece-f491-423b-a9db-d9dc81c5ac33",
                "user": 14,
                "marketplace": 1,
                "marketplace_name": "eBay",
                "username": "jetsetter-su"
            },
            "channel": {
                "id": "281494ae-07f5-45be-8477-4a1ab586908a",
                "name": "Канал продаж 'US site' аккаунта 'jetsetter-su'.",
                "marketplace_user_account": "62536ece-f491-423b-a9db-d9dc81c5ac33",
                "domain": 8
            },
            "order_id": "08-06397-87451",
            "create_date": "2021-01-13T05:17:50+03:00",
            "update_date": "2021-01-25T23:01:44+03:00",
            "items": [
                {
                    "id": "0c98b3f8-e89f-4cb0-9b28-01103a15d1b2",
                    "sku": "JA24042G1BIU_100B_EU 35-36",
                    "title": "LOVE MOSCHINO women's BOOTS JA24042G1BIU",
                    "quantity": 1,
                    "price": 97.21,
                    "currency": "USD",
                    "total_price": 97.21,
                    "main_image": null
                }
            ],
            "buyer": "Lakeisha Elder",
            "total_price": 97.21,
            "currency_code": "USD",
            "is_open": false,
            "is_paid": true,
            "is_shipped": true,
            "is_partially_shipped": false,
            "is_completed": true,
            "is_canceled": false,
            "is_refunded": false,
            "is_visible": true,
            "is_viewed": false,
            "is_disabled": true
        }
    ]
}